2 Datorövning 2. Beskrivande statistik | R-anvisningar till Grundläggande statistik
…
2.1 Repetition från datorövning 1

När man arbetar i R är det klokt att använda ett avancerat gränssnitt som RStudio och att skriva sin kod i ett separat skript. I RStudio kan man starta ett nytt skript genom Ctrl + Shift + N.

Mycket funktionalitet i R ligger i tilläggspaket (Packages). Paket måste installeras första gången de används och laddas varje session de används, t.ex.

# install.packages("tidyverse")
library(tidyverse) # Ger ett felmeddelande om paketet inte installerats tidigare.

Data läses in med import-funktioner där valet av funktion beror på typen av fil. Importerad data sparas som ett objekt i R genom assign-pilen <-.

dat <- read_csv("https://raw.githubusercontent.com/adamflr/ST0060-2022/main/Data/Spotify_data.csv")
dat

## # A tibble: 76,622 × 24
##    artist_name album_name    track_number track_name album_type album_release_d…
##    <chr>       <chr>                <dbl> <chr>      <chr>      <chr>           
##  1 100 gecs    1000 gecs an…            1 money mac… album      2020-07-10      
##  2 100 gecs    1000 gecs an…            2 ringtone … album      2020-07-10      
##  3 100 gecs    1000 gecs an…            3 745 stick… album      2020-07-10      
##  4 100 gecs    1000 gecs an…            4 gec 2 Ü (… album      2020-07-10      
##  5 100 gecs    1000 gecs an…            5 hand crus… album      2020-07-10      
##  6 100 gecs    1000 gecs an…            6 800db clo… album      2020-07-10      
##  7 100 gecs    1000 gecs an…            7 stupid ho… album      2020-07-10      
##  8 100 gecs    1000 gecs an…            8 ringtone … album      2020-07-10      
##  9 100 gecs    1000 gecs an…            9 xXXi_wud_… album      2020-07-10      
## 10 100 gecs    1000 gecs an…           10 745 stick… album      2020-07-10      
## # … with 76,612 more rows, and 18 more variables: album_release_year <dbl>,
## #   danceability <dbl>, energy <dbl>, key <dbl>, loudness <dbl>, mode <dbl>,
## #   speechiness <dbl>, acousticness <dbl>, instrumentalness <dbl>,
## #   liveness <dbl>, valence <dbl>, tempo <dbl>, time_signature <dbl>,
## #   explicit <lgl>, type <chr>, key_name <chr>, mode_name <chr>, key_mode <chr>
…
Funktionen summarise() ger ett sammanfattande mått (som mean() för medelvärde eller sum() för summa) för någon eller några variabler. Funktionen group_by() kan användas för att göra beräkningen efter någon gruppering.

dat %>% 
  group_by(artist_name) %>% 
  summarise(Antal_spår = n(),
            Medeltempo = mean(tempo),
            Maxdansbarhet = max(danceability))

## # A tibble: 363 × 4
##    artist_name            Antal_spår Medeltempo Maxdansbarhet
##    <chr>                       <int>      <dbl>         <dbl>
##  1 100 gecs                       50       135.         0.92 
##  2 A Sunny Day In Glasgow        106       121.         0.63 
##  3 A Tribe Called Quest          139       101.         0.954
##  4 A$AP Rocky                    162       122.         0.945
##  5 Abe Vigoda                     68       136.         0.57 
##  6 Actress                       206       118.         0.939
##  7 Adrianne Lenker                61       125.         0.758
##  8 Against All Logic              26       118.         0.92 
##  9 Aldous Harding                 80       111.         0.914
## 10 Alex G                        179       122.         0.807
## # … with 353 more rows
…
gapminder <- read_excel("C:/Users/User_name/Downloads/Gapminder.xlsx")
gapminder

Uppgift 2.2  (Importera från excelfil) Var ligger den nedladdade filen Gapminder.xlsx? Gör lämplig ändring i koden ovan för att läsa in data från den filen. Notera att R använder högerlutande snedstreck /, så om en kopierad sökväg har vänster-snedstreck måste de ändras. Kontrollera att datan blivit korrekt inläst genom att köra objektnamnet gapminder.

En R-session har alltid en grundmapp, ett Working directory. Man kan se vilken mapp det är genom att köra

getwd()

En filsökväg kan anges antingen som en fullständig sökväg, som ovan, eller relativt working directory. Om man till exempel har en fil Gapminder.xlsx som ligger i en mapp Data som i sin tur ligger i working directory, kan man importera data från filen med

gapminder <- read_excel("Data/Gapminder.xlsx")
gapminder

## # A tibble: 1,704 × 6
##    country     continent  year lifeExp      pop gdpPercap
##    <chr>       <chr>     <dbl>   <dbl>    <dbl>     <dbl>
##  1 Afghanistan Asia       1952    28.8  8425333      779.
##  2 Afghanistan Asia       1957    30.3  9240934      821.
##  3 Afghanistan Asia       1962    32.0 10267083      853.
##  4 Afghanistan Asia       1967    34.0 11537966      836.
##  5 Afghanistan Asia       1972    36.1 13079460      740.
##  6 Afghanistan Asia       1977    38.4 14880372      786.
##  7 Afghanistan Asia       1982    39.9 12881816      978.
##  8 Afghanistan Asia       1987    40.8 13867957      852.
##  9 Afghanistan Asia       1992    41.7 16317921      649.
## 10 Afghanistan Asia       1997    41.8 22227415      635.
## # … with 1,694 more rows
…
Uppgift 2.8  (Graf för livslängd) Gör lämpliga ändringar i det sista exempel för att istället beräkna spridningsmått för livslängd.

Vi avslutar med tre vanliga illustrationer av vetenskaplig data - ett linjediagram med felstaplar, ett stapeldiagram med felstaplar, och ett lådagram. För linjediagrammet beräknar vi medelvärdet och spridningsmått för bnp över år och kontinent. Som spridningsmått använder vi medelfelet, vilket beräknas som standardavvikelse delat på roten ur antalet observationer.

dat_sum <- gapminder %>% 
  group_by(year, continent) %>% 
  summarise(Mean = mean(gdpPercap),
            SE = sd(gdpPercap) / sqrt(n()))
dat_sum

## # A tibble: 60 × 4
## # Groups:   year [12]
##     year continent   Mean    SE
##    <dbl> <chr>      <dbl> <dbl>
##  1  1952 Africa     1253.  136.
##  2  1952 Americas   4079.  600.
##  3  1952 Asia       5195. 3244.
##  4  1952 Europe     5661.  569.
##  5  1952 Oceania   10298.  258.
##  6  1957 Africa     1385.  157.
##  7  1957 Americas   4616.  662.
##  8  1957 Asia       5788. 3396.
##  9  1957 Europe     6963.  671.
## 10  1957 Oceania   11599.  649.
## # … with 50 more rows
…
