8 Datorövning 8. Regression och korrelation | R-anvisningar till Grundläggande statistik
…
Medellivslängd och bnp per capita har en stark positiv korrelation på 0.85 och den korrelation är signifikant skild från noll (p < 0.001). Notera att p-värdet är detsamma som för lutningsparametern i regressionen.

Uppgift 8.12  (Korrelationsmatris) Om man har fler än två variabler sammanfattas korrelationer ofta med en korrelationsmatris.

dat_eu07[, 4:6]

## # A tibble: 30 × 3
##    lifeExp      pop gdpPercap
##      <dbl>    <dbl>     <dbl>
##  1    76.4  3600523      5.94
##  2    79.8  8199783     36.1 
##  3    79.4 10392226     33.7 
##  4    74.9  4552198      7.45
##  5    73.0  7322858     10.7 
##  6    75.7  4493312     14.6 
##  7    76.5 10228744     22.8 
##  8    78.3  5468120     35.3 
##  9    79.3  5238460     33.2 
## 10    80.7 61083916     30.5 
## # … with 20 more rows
…
