Kapitel 6 Sannolikhetsfördelningar och slumptal | R-anvisningar till Grundläggande statistik
…
Övning 6.4  (Relativ frekvens) Säg att man kastar ett häftstift och att sannolikheten att stiftet stannar med spetsen upp är 0.66. Simulera tusen häftstiftskast och beräkna den relativa frekvensen häftstiften hamnat med spetsen uppåt. Den relativa frekvensen för en serie värden ges av antalet positiva utfall delat på antalet kast för varje kast. Den relativa frekvensen efter 35 kast är till exempel antalet positiva utfall bland de 35, delat på 35.
Illustrera med ett linjediagram.

Ledning: tusen kast kan simuleras med rbin(1000, 1, 0.66), vilket skapar tusen slumptal från en binomialfördelning där \(n = 1\) och \(p = 0.67\).

Lösningsförslag 6.4  (Relativ frekvens) För att beräkna och illustrera den relativa frekvensen skapas en tibble där den första kolumnen anger antalet kast vid varje steg, det vill säga en kolumn som anger ett till tusen. Därefter dras tusen slumptal enligt ledningen ovan. Därefter beräknas den kumulativa summan - antalet positiva utfall upp till det kast som anges för raden. Och slutligen beräknas den relativa frekvensen genom att ta den kumulativa summan och dela med antalet kast.

dat <- tibble(Kast = 1:1000,
              Utfall = rbinom(1000, 1, 0.67),
              Antal_spets_upp = cumsum(Utfall),
              Relativ_frekvens = Antal_spets_upp / Kast)

dat

## # A tibble: 1,000 × 4
##     Kast Utfall Antal_spets_upp Relativ_frekvens
##    <int>  <int>           <int>            <dbl>
##  1     1      1               1            1    
##  2     2      0               1            0.5  
##  3     3      1               2            0.667
##  4     4      1               3            0.75 
##  5     5      1               4            0.8  
##  6     6      1               5            0.833
##  7     7      1               6            0.857
##  8     8      0               6            0.75 
##  9     9      1               7            0.778
## 10    10      1               8            0.8  
## # … with 990 more rows
…
